{
    "prepare_queue": {
        "installed": [],
        "uninstalled": []
    },
    "config_munge": {
        "files": {}
    },
    "installed_plugins": {
        "cordova-plugin-android-permissions": {
            "PACKAGE_NAME": "com.zvinca.dresoo"
        },
        "cordova-plugin-camera": {
            "PACKAGE_NAME": "com.zvinca.dresoo"
        },
        "cordova-plugin-camera-preview": {
            "PACKAGE_NAME": "com.zvinca.dresoo"
        },
        "cordova-plugin-console": {
            "PACKAGE_NAME": "com.zvinca.dresoo"
        },
        "cordova-plugin-device": {
            "PACKAGE_NAME": "com.zvinca.dresoo"
        },
        "cordova-plugin-dialogs": {
            "PACKAGE_NAME": "com.zvinca.dresoo"
        },
        "cordova-plugin-file-transfer": {
            "PACKAGE_NAME": "com.zvinca.dresoo"
        },
        "cordova-plugin-keyboard": {
            "PACKAGE_NAME": "com.zvinca.dresoo"
        },
        "cordova-plugin-network-information": {
            "PACKAGE_NAME": "com.zvinca.dresoo"
        },
        "cordova-plugin-splashscreen": {
            "PACKAGE_NAME": "com.zvinca.dresoo"
        },
        "cordova-plugin-statusbar": {
            "PACKAGE_NAME": "com.zvinca.dresoo"
        },
        "cordova-plugin-whitelist": {
            "PACKAGE_NAME": "com.zvinca.dresoo"
        },
        "phonegap-plugin-push": {
            "SENDER_ID": "XXXXXXX",
            "PACKAGE_NAME": "com.zvinca.dresoo"
        }
    },
    "dependent_plugins": {
        "cordova-plugin-compat": {
            "PACKAGE_NAME": "com.zvinca.dresoo"
        },
        "cordova-plugin-file": {
            "PACKAGE_NAME": "com.zvinca.dresoo"
        }
    }
}