{
    "AVFoundation.framework": 1,
    "AudioToolbox.framework": 1,
    "SystemConfiguration.framework": 1,
    "CoreTelephony.framework": 1,
    "AddressBook.framework": 1,
    "libsqlite3.tbd": 1,
    "libz.tbd": 1,
    "ImageIO.framework": 1,
    "CoreLocation.framework": 1,
    "CoreImage.framework": 1,
    "OpenGLES.framework": 1,
    "GLKit.framework": 1,
    "CoreVideo.framework": 1,
    "QuartzCore.framework": 1
}